
49289 : 0x392e9d239fddd : 2 : ittapi_config_mask_get :  --itt-config mask to be applied: 1
49289 : 0x392e9d23b0fe5 : 2 : ittapi_config_apply_per_lib :  ITTAPI function instrumented: __itt_domain_create
49289 : 0x392e9d23b38e4 : 2 : ittapi_config_apply_per_lib :  ITTAPI function instrumented: __itt_string_handle_create
49289 : 0x392e9d23b5b76 : 2 : ittapi_config_apply_per_lib :  ITTAPI function instrumented: __itt_pause
49289 : 0x392e9d23b7910 : 2 : ittapi_config_apply_per_lib :  ITTAPI function instrumented: __itt_resume
49289 : 0x392e9d23b97ea : 2 : ittapi_config_apply_per_lib :  ITTAPI function instrumented: __itt_thread_set_name
49289 : 0x392e9d23bb606 : 2 : ittapi_config_apply_per_lib :  ITTAPI function instrumented: __itt_thread_ignore
49289 : 0x392e9d23bd395 : 2 : ittapi_config_apply_per_lib :  ITTAPI function instrumented: __itt_thr_name_set
49289 : 0x392e9d23bf537 : 2 : ittapi_config_apply_per_lib :  ITTAPI function instrumented: __itt_thr_ignore
49289 : 0x392e9d23c2342 : 2 : ittapi_config_apply_per_lib :  ITTAPI function not implemented: __itt_enable_attach
49289 : 0x392e9d244bf05 : 2 : ittapi_config_apply_per_lib :  ITTAPI function NOT instrumented (not matched by --itt-config option): __itt_sync_create

49289 : 0x392e9d2450221 : 2 : ittapi_config_apply_per_lib :  ITTAPI function NOT instrumented (not matched by --itt-config option): __itt_sync_rename

49289 : 0x392e9d2451909 : 2 : ittapi_config_apply_per_lib :  ITTAPI function NOT instrumented (not matched by --itt-config option): __itt_sync_destroy

49289 : 0x392e9d2453109 : 2 : ittapi_config_apply_per_lib :  ITTAPI function NOT instrumented (not matched by --itt-config option): __itt_sync_prepare

49289 : 0x392e9d245456f : 2 : ittapi_config_apply_per_lib :  ITTAPI function NOT instrumented (not matched by --itt-config option): __itt_sync_cancel

49289 : 0x392e9d2455949 : 2 : ittapi_config_apply_per_lib :  ITTAPI function NOT instrumented (not matched by --itt-config option): __itt_sync_acquired

49289 : 0x392e9d2456d73 : 2 : ittapi_config_apply_per_lib :  ITTAPI function NOT instrumented (not matched by --itt-config option): __itt_sync_releasing

49289 : 0x392e9d245e27a : 2 : ittapi_config_apply_per_lib :  ITTAPI function not implemented: __itt_suppress_push
49289 : 0x392e9d2461284 : 2 : ittapi_config_apply_per_lib :  ITTAPI function not implemented: __itt_suppress_pop
49289 : 0x392e9d2463901 : 2 : ittapi_config_apply_per_lib :  ITTAPI function not implemented: __itt_suppress_mark_range
49289 : 0x392e9d2471638 : 2 : ittapi_config_apply_per_lib :  ITTAPI function not implemented: __itt_suppress_clear_range
49289 : 0x392e9d2473852 : 2 : ittapi_config_apply_per_lib :  ITTAPI function NOT instrumented (not matched by --itt-config option): __itt_sync_prepare

49289 : 0x392e9d2474efd : 2 : ittapi_config_apply_per_lib :  ITTAPI function NOT instrumented (not matched by --itt-config option): __itt_sync_cancel

49289 : 0x392e9d2476595 : 2 : ittapi_config_apply_per_lib :  ITTAPI function NOT instrumented (not matched by --itt-config option): __itt_sync_acquired

49289 : 0x392e9d24811da : 2 : ittapi_config_apply_per_lib :  ITTAPI function NOT instrumented (not matched by --itt-config option): __itt_sync_releasing

49289 : 0x392e9d2484343 : 2 : ittapi_config_apply_per_lib :  ITTAPI function not implemented: __itt_model_site_begin
49289 : 0x392e9d2486ad8 : 2 : ittapi_config_apply_per_lib :  ITTAPI function not implemented: __itt_model_site_end
49289 : 0x392e9d248928c : 2 : ittapi_config_apply_per_lib :  ITTAPI function not implemented: __itt_model_task_begin
49289 : 0x392e9d248b9c7 : 2 : ittapi_config_apply_per_lib :  ITTAPI function not implemented: __itt_model_task_end
49289 : 0x392e9d248de30 : 2 : ittapi_config_apply_per_lib :  ITTAPI function not implemented: __itt_model_lock_acquire
49289 : 0x392e9d249c38c : 2 : ittapi_config_apply_per_lib :  ITTAPI function not implemented: __itt_model_lock_release
49289 : 0x392e9d249f1e7 : 2 : ittapi_config_apply_per_lib :  ITTAPI function not implemented: __itt_model_record_allocation
49289 : 0x392e9d24a1a09 : 2 : ittapi_config_apply_per_lib :  ITTAPI function not implemented: __itt_model_record_deallocation
49289 : 0x392e9d24a41c7 : 2 : ittapi_config_apply_per_lib :  ITTAPI function not implemented: __itt_model_induction_uses
49289 : 0x392e9d24a68d0 : 2 : ittapi_config_apply_per_lib :  ITTAPI function not implemented: __itt_model_reduction_uses
49289 : 0x392e9d24a91e2 : 2 : ittapi_config_apply_per_lib :  ITTAPI function not implemented: __itt_model_observe_uses
49289 : 0x392e9d24abb1c : 2 : ittapi_config_apply_per_lib :  ITTAPI function not implemented: __itt_model_clear_uses
49289 : 0x392e9d24ae6ce : 2 : ittapi_config_apply_per_lib :  ITTAPI function not implemented: __itt_model_site_beginA
49289 : 0x392e9d24b0f40 : 2 : ittapi_config_apply_per_lib :  ITTAPI function not implemented: __itt_model_site_beginAL
49289 : 0x392e9d24b3649 : 2 : ittapi_config_apply_per_lib :  ITTAPI function not implemented: __itt_model_task_beginA
49289 : 0x392e9d24c57dd : 2 : ittapi_config_apply_per_lib :  ITTAPI function not implemented: __itt_model_task_beginAL
49289 : 0x392e9d24c87a1 : 2 : ittapi_config_apply_per_lib :  ITTAPI function not implemented: __itt_model_iteration_taskA
49289 : 0x392e9d24cade1 : 2 : ittapi_config_apply_per_lib :  ITTAPI function not implemented: __itt_model_iteration_taskAL
49289 : 0x392e9d24cd3a0 : 2 : ittapi_config_apply_per_lib :  ITTAPI function not implemented: __itt_model_site_end_2
49289 : 0x392e9d24cf878 : 2 : ittapi_config_apply_per_lib :  ITTAPI function not implemented: __itt_model_task_end_2
49289 : 0x392e9d24d21a8 : 2 : ittapi_config_apply_per_lib :  ITTAPI function not implemented: __itt_model_lock_acquire_2
49289 : 0x392e9d24d4875 : 2 : ittapi_config_apply_per_lib :  ITTAPI function not implemented: __itt_model_lock_release_2
49289 : 0x392e9d24d6f6a : 2 : ittapi_config_apply_per_lib :  ITTAPI function not implemented: __itt_model_aggregate_task
49289 : 0x392e9d24d95b5 : 2 : ittapi_config_apply_per_lib :  ITTAPI function not implemented: __itt_model_disable_push
49289 : 0x392e9d24dbeef : 2 : ittapi_config_apply_per_lib :  ITTAPI function not implemented: __itt_model_disable_pop
49289 : 0x392e9d24e6e24 : 2 : ittapi_config_apply_per_lib :  ITTAPI function instrumented: __itt_heap_function_create
49289 : 0x392e9d24e954c : 2 : ittapi_config_apply_per_lib :  ITTAPI function instrumented: __itt_heap_allocate_begin
49289 : 0x392e9d24eb0a0 : 2 : ittapi_config_apply_per_lib :  ITTAPI function instrumented: __itt_heap_allocate_end
49289 : 0x392e9d24ecc3a : 2 : ittapi_config_apply_per_lib :  ITTAPI function instrumented: __itt_heap_free_begin
49289 : 0x392e9d24ee625 : 2 : ittapi_config_apply_per_lib :  ITTAPI function instrumented: __itt_heap_free_end
49289 : 0x392e9d24f0152 : 2 : ittapi_config_apply_per_lib :  ITTAPI function instrumented: __itt_heap_reallocate_begin
49289 : 0x392e9d24f1b97 : 2 : ittapi_config_apply_per_lib :  ITTAPI function instrumented: __itt_heap_reallocate_end
49289 : 0x392e9d24f3fba : 2 : ittapi_config_apply_per_lib :  ITTAPI function not implemented: __itt_heap_internal_access_begin
49289 : 0x392e9d24f6515 : 2 : ittapi_config_apply_per_lib :  ITTAPI function not implemented: __itt_heap_internal_access_end
49289 : 0x392e9d24f8c00 : 2 : ittapi_config_apply_per_lib :  ITTAPI function not implemented: __itt_heap_record_memory_growth_begin
49289 : 0x392e9d2502715 : 2 : ittapi_config_apply_per_lib :  ITTAPI function not implemented: __itt_heap_record_memory_growth_end
49289 : 0x392e9d250550c : 2 : ittapi_config_apply_per_lib :  ITTAPI function not implemented: __itt_heap_reset_detection
49289 : 0x392e9d2507bf7 : 2 : ittapi_config_apply_per_lib :  ITTAPI function not implemented: __itt_heap_record
49289 : 0x392e9d250a1a2 : 2 : ittapi_config_apply_per_lib :  ITTAPI function not implemented: __itt_id_create
49289 : 0x392e9d250c710 : 2 : ittapi_config_apply_per_lib :  ITTAPI function not implemented: __itt_id_destroy
49289 : 0x392e9d250e95c : 2 : ittapi_config_apply_per_lib :  ITTAPI function instrumented: __itt_get_timestamp
49289 : 0x392e9d2510c0d : 2 : ittapi_config_apply_per_lib :  ITTAPI function not implemented: __itt_region_begin
49289 : 0x392e9d251303a : 2 : ittapi_config_apply_per_lib :  ITTAPI function not implemented: __itt_region_end
49289 : 0x392e9d2515019 : 2 : ittapi_config_apply_per_lib :  ITTAPI function instrumented: __itt_frame_begin_v3
49289 : 0x392e9d2516cd6 : 2 : ittapi_config_apply_per_lib :  ITTAPI function instrumented: __itt_frame_end_v3
49289 : 0x392e9d252462c : 2 : ittapi_config_apply_per_lib :  ITTAPI function instrumented: __itt_frame_submit_v3
49289 : 0x392e9d25265d9 : 2 : ittapi_config_apply_per_lib :  ITTAPI function NOT instrumented (not matched by --itt-config option): __itt_task_group

49289 : 0x392e9d2527b1c : 2 : ittapi_config_apply_per_lib :  ITTAPI function NOT instrumented (not matched by --itt-config option): __itt_task_begin

49289 : 0x392e9d2528faa : 2 : ittapi_config_apply_per_lib :  ITTAPI function NOT instrumented (not matched by --itt-config option): __itt_task_begin_fn

49289 : 0x392e9d252a4c4 : 2 : ittapi_config_apply_per_lib :  ITTAPI function NOT instrumented (not matched by --itt-config option): __itt_task_end

49289 : 0x392e9d252b948 : 2 : ittapi_config_apply_per_lib :  ITTAPI function NOT instrumented (not matched by --itt-config option): __itt_counter_inc_v3

49289 : 0x392e9d252cf7c : 2 : ittapi_config_apply_per_lib :  ITTAPI function NOT instrumented (not matched by --itt-config option): __itt_counter_inc_delta_v3

49289 : 0x392e9d252f327 : 2 : ittapi_config_apply_per_lib :  ITTAPI function not implemented: __itt_marker
49289 : 0x392e9d2531450 : 2 : ittapi_config_apply_per_lib :  ITTAPI function instrumented: __itt_metadata_add
49289 : 0x392e9d2533747 : 2 : ittapi_config_apply_per_lib :  ITTAPI function not implemented: __itt_metadata_str_add
49289 : 0x392e9d253cfc7 : 2 : ittapi_config_apply_per_lib :  ITTAPI function not implemented: __itt_relation_add_to_current
49289 : 0x392e9d253fddc : 2 : ittapi_config_apply_per_lib :  ITTAPI function not implemented: __itt_relation_add
49289 : 0x392e9d2541eca : 2 : ittapi_config_apply_per_lib :  ITTAPI function instrumented: __itt_event_create
49289 : 0x392e9d2543453 : 2 : ittapi_config_apply_per_lib :  ITTAPI function NOT instrumented (not matched by --itt-config option): __itt_event_start

49289 : 0x392e9d2544b08 : 2 : ittapi_config_apply_per_lib :  ITTAPI function NOT instrumented (not matched by --itt-config option): __itt_event_end

49289 : 0x392e9d2546073 : 2 : ittapi_config_apply_per_lib :  ITTAPI function NOT instrumented (not matched by --itt-config option): __itt_sync_set_name

49289 : 0x392e9d2547bdb : 2 : ittapi_config_apply_per_lib :  ITTAPI function instrumented: __itt_notify_sync_name
49289 : 0x392e9d25497a7 : 2 : ittapi_config_apply_per_lib :  ITTAPI function instrumented: __itt_notify_sync_prepare
49289 : 0x392e9d254b1c5 : 2 : ittapi_config_apply_per_lib :  ITTAPI function instrumented: __itt_notify_sync_cancel
49289 : 0x392e9d254ccc9 : 2 : ittapi_config_apply_per_lib :  ITTAPI function instrumented: __itt_notify_sync_acquired
49289 : 0x392e9d2555727 : 2 : ittapi_config_apply_per_lib :  ITTAPI function instrumented: __itt_notify_sync_releasing
49289 : 0x392e9d255865f : 2 : ittapi_config_apply_per_lib :  ITTAPI function not implemented: __itt_memory_read
49289 : 0x392e9d255abe1 : 2 : ittapi_config_apply_per_lib :  ITTAPI function not implemented: __itt_memory_write
49289 : 0x392e9d255d1d1 : 2 : ittapi_config_apply_per_lib :  ITTAPI function not implemented: __itt_memory_update
49289 : 0x392e9d255f749 : 2 : ittapi_config_apply_per_lib :  ITTAPI function not implemented: __itt_state_get
49289 : 0x392e9d2561aea : 2 : ittapi_config_apply_per_lib :  ITTAPI function not implemented: __itt_state_set
49289 : 0x392e9d2563dc3 : 2 : ittapi_config_apply_per_lib :  ITTAPI function not implemented: __itt_obj_mode_set
49289 : 0x392e9d25661fa : 2 : ittapi_config_apply_per_lib :  ITTAPI function not implemented: __itt_thr_mode_set
49289 : 0x392e9d256803e : 2 : ittapi_config_apply_per_lib :  ITTAPI function instrumented: __itt_frame_create
49289 : 0x392e9d2569b7e : 2 : ittapi_config_apply_per_lib :  ITTAPI function instrumented: __itt_frame_begin
49289 : 0x392e9d257d92d : 2 : ittapi_config_apply_per_lib :  ITTAPI function instrumented: __itt_frame_end
49289 : 0x392e9d257ff6e : 2 : ittapi_config_apply_per_lib :  ITTAPI function instrumented: __itt_counter_create
49289 : 0x392e9d2581501 : 2 : ittapi_config_apply_per_lib :  ITTAPI function NOT instrumented (not matched by --itt-config option): __itt_counter_destroy

49289 : 0x392e9d2582ada : 2 : ittapi_config_apply_per_lib :  ITTAPI function NOT instrumented (not matched by --itt-config option): __itt_counter_inc

49289 : 0x392e9d258403a : 2 : ittapi_config_apply_per_lib :  ITTAPI function NOT instrumented (not matched by --itt-config option): __itt_counter_inc_delta

49289 : 0x392e9d2586530 : 2 : ittapi_config_apply_per_lib :  ITTAPI function not implemented: __itt_mark_create
49289 : 0x392e9d2588ae4 : 2 : ittapi_config_apply_per_lib :  ITTAPI function not implemented: __itt_mark
49289 : 0x392e9d258b157 : 2 : ittapi_config_apply_per_lib :  ITTAPI function not implemented: __itt_mark_off
49289 : 0x392e9d258d66b : 2 : ittapi_config_apply_per_lib :  ITTAPI function not implemented: __itt_mark_global
49289 : 0x392e9d258fd06 : 2 : ittapi_config_apply_per_lib :  ITTAPI function not implemented: __itt_mark_global_off
49289 : 0x392e9d25982f7 : 2 : ittapi_config_apply_per_lib :  ITTAPI function NOT instrumented (not matched by --itt-config option): __itt_stack_caller_create

49289 : 0x392e9d259a4a3 : 2 : ittapi_config_apply_per_lib :  ITTAPI function NOT instrumented (not matched by --itt-config option): __itt_stack_caller_destroy

49289 : 0x392e9d259ba22 : 2 : ittapi_config_apply_per_lib :  ITTAPI function NOT instrumented (not matched by --itt-config option): __itt_stack_callee_enter

49289 : 0x392e9d259cf3c : 2 : ittapi_config_apply_per_lib :  ITTAPI function NOT instrumented (not matched by --itt-config option): __itt_stack_callee_leave

49289 : 0x392e9d259f722 : 2 : ittapi_config_apply_per_lib :  ITTAPI function not implemented: __itt_clock_domain_create
49289 : 0x392e9d25a1e35 : 2 : ittapi_config_apply_per_lib :  ITTAPI function not implemented: __itt_clock_domain_reset
49289 : 0x392e9d25a419a : 2 : ittapi_config_apply_per_lib :  ITTAPI function not implemented: __itt_id_create_ex
49289 : 0x392e9d25a664a : 2 : ittapi_config_apply_per_lib :  ITTAPI function not implemented: __itt_id_destroy_ex
49289 : 0x392e9d25a7eae : 2 : ittapi_config_apply_per_lib :  ITTAPI function NOT instrumented (not matched by --itt-config option): __itt_task_begin_ex

49289 : 0x392e9d25a938c : 2 : ittapi_config_apply_per_lib :  ITTAPI function NOT instrumented (not matched by --itt-config option): __itt_task_begin_fn_ex

49289 : 0x392e9d25b123f : 2 : ittapi_config_apply_per_lib :  ITTAPI function NOT instrumented (not matched by --itt-config option): __itt_task_end_ex

49289 : 0x392e9d25b31ec : 2 : ittapi_config_apply_per_lib :  ITTAPI function NOT instrumented (not matched by --itt-config option): __itt_task_begin_overlapped

49289 : 0x392e9d25b4775 : 2 : ittapi_config_apply_per_lib :  ITTAPI function NOT instrumented (not matched by --itt-config option): __itt_task_begin_overlapped_ex

49289 : 0x392e9d25b5c0d : 2 : ittapi_config_apply_per_lib :  ITTAPI function NOT instrumented (not matched by --itt-config option): __itt_task_end_overlapped

49289 : 0x392e9d25b7091 : 2 : ittapi_config_apply_per_lib :  ITTAPI function NOT instrumented (not matched by --itt-config option): __itt_task_end_overlapped_ex

49289 : 0x392e9d25b997b : 2 : ittapi_config_apply_per_lib :  ITTAPI function not implemented: __itt_marker_ex
49289 : 0x392e9d25bc0fd : 2 : ittapi_config_apply_per_lib :  ITTAPI function not implemented: __itt_metadata_add_with_scope
49289 : 0x392e9d25be779 : 2 : ittapi_config_apply_per_lib :  ITTAPI function not implemented: __itt_metadata_str_add_with_scope
49289 : 0x392e9d25c0f55 : 2 : ittapi_config_apply_per_lib :  ITTAPI function not implemented: __itt_relation_add_to_current_ex
49289 : 0x392e9d25c3513 : 2 : ittapi_config_apply_per_lib :  ITTAPI function not implemented: __itt_relation_add_ex
49289 : 0x392e9d25cc9bd : 2 : ittapi_config_apply_per_lib :  ITTAPI function not implemented: __itt_track_group_create
49289 : 0x392e9d25cf583 : 2 : ittapi_config_apply_per_lib :  ITTAPI function not implemented: __itt_track_create
49289 : 0x392e9d25d18b6 : 2 : ittapi_config_apply_per_lib :  ITTAPI function not implemented: __itt_set_track
49289 : 0x392e9d25d3949 : 2 : ittapi_config_apply_per_lib :  ITTAPI function instrumented: __itt_api_version
49289 : 0x392e9d25d58ec : 2 : ittapi_config_apply_per_lib :  ITTAPI function not implemented: __itt_av_save
49289 : 0x392e9d265d14a : 2 : ittapi_config_mask_get :  --itt-config mask to be applied: 1
49289 : 0x392e9d266b089 : 2 : ittapi_config_apply_per_lib :  ITTAPI function instrumented: __itt_domain_create
49289 : 0x392e9d266d253 : 2 : ittapi_config_apply_per_lib :  ITTAPI function instrumented: __itt_string_handle_create
49289 : 0x392e9d266f3af : 2 : ittapi_config_apply_per_lib :  ITTAPI function instrumented: __itt_pause
49289 : 0x392e9d267108a : 2 : ittapi_config_apply_per_lib :  ITTAPI function instrumented: __itt_resume
49289 : 0x392e9d268d0b9 : 2 : ittapi_config_apply_per_lib :  ITTAPI function instrumented: __itt_thread_set_name
49289 : 0x392e9d268fc61 : 2 : ittapi_config_apply_per_lib :  ITTAPI function instrumented: __itt_thread_ignore
49289 : 0x392e9d2691b3b : 2 : ittapi_config_apply_per_lib :  ITTAPI function instrumented: __itt_thr_name_set
49289 : 0x392e9d26936e9 : 2 : ittapi_config_apply_per_lib :  ITTAPI function instrumented: __itt_thr_ignore
49289 : 0x392e9d26967b2 : 2 : ittapi_config_apply_per_lib :  ITTAPI function not implemented: __itt_enable_attach
49289 : 0x392e9d2698986 : 2 : ittapi_config_apply_per_lib :  ITTAPI function instrumented: __itt_detach
49289 : 0x392e9d269a03c : 2 : ittapi_config_apply_per_lib :  ITTAPI function NOT instrumented (not matched by --itt-config option): __itt_sync_create

49289 : 0x392e9d269b6f1 : 2 : ittapi_config_apply_per_lib :  ITTAPI function NOT instrumented (not matched by --itt-config option): __itt_sync_rename

49289 : 0x392e9d269cd42 : 2 : ittapi_config_apply_per_lib :  ITTAPI function NOT instrumented (not matched by --itt-config option): __itt_sync_destroy

49289 : 0x392e9d269e1bc : 2 : ittapi_config_apply_per_lib :  ITTAPI function NOT instrumented (not matched by --itt-config option): __itt_sync_prepare

49289 : 0x392e9d26a704b : 2 : ittapi_config_apply_per_lib :  ITTAPI function NOT instrumented (not matched by --itt-config option): __itt_sync_cancel

49289 : 0x392e9d26a90ac : 2 : ittapi_config_apply_per_lib :  ITTAPI function NOT instrumented (not matched by --itt-config option): __itt_sync_acquired

49289 : 0x392e9d26aa7e4 : 2 : ittapi_config_apply_per_lib :  ITTAPI function NOT instrumented (not matched by --itt-config option): __itt_sync_releasing

49289 : 0x392e9d26ad150 : 2 : ittapi_config_apply_per_lib :  ITTAPI function not implemented: __itt_suppress_push
49289 : 0x392e9d26b0006 : 2 : ittapi_config_apply_per_lib :  ITTAPI function not implemented: __itt_suppress_pop
49289 : 0x392e9d26b2827 : 2 : ittapi_config_apply_per_lib :  ITTAPI function not implemented: __itt_suppress_mark_range
49289 : 0x392e9d26b4f1c : 2 : ittapi_config_apply_per_lib :  ITTAPI function not implemented: __itt_suppress_clear_range
49289 : 0x392e9d26b67e5 : 2 : ittapi_config_apply_per_lib :  ITTAPI function NOT instrumented (not matched by --itt-config option): __itt_sync_prepare

49289 : 0x392e9d26b7d50 : 2 : ittapi_config_apply_per_lib :  ITTAPI function NOT instrumented (not matched by --itt-config option): __itt_sync_cancel

49289 : 0x392e9d26b929c : 2 : ittapi_config_apply_per_lib :  ITTAPI function NOT instrumented (not matched by --itt-config option): __itt_sync_acquired

49289 : 0x392e9d26c12c2 : 2 : ittapi_config_apply_per_lib :  ITTAPI function NOT instrumented (not matched by --itt-config option): __itt_sync_releasing

49289 : 0x392e9d26c4942 : 2 : ittapi_config_apply_per_lib :  ITTAPI function not implemented: __itt_model_site_begin
49289 : 0x392e9d26c6fe7 : 2 : ittapi_config_apply_per_lib :  ITTAPI function not implemented: __itt_model_site_end
49289 : 0x392e9d26c95f6 : 2 : ittapi_config_apply_per_lib :  ITTAPI function not implemented: __itt_model_task_begin
49289 : 0x392e9d26cbbb4 : 2 : ittapi_config_apply_per_lib :  ITTAPI function not implemented: __itt_model_task_end
49289 : 0x392e9d26cdfd7 : 2 : ittapi_config_apply_per_lib :  ITTAPI function not implemented: __itt_model_lock_acquire
49289 : 0x392e9d26d065e : 2 : ittapi_config_apply_per_lib :  ITTAPI function not implemented: __itt_model_lock_release
49289 : 0x392e9d26d2aa0 : 2 : ittapi_config_apply_per_lib :  ITTAPI function not implemented: __itt_model_record_allocation
49289 : 0x392e9d26d5036 : 2 : ittapi_config_apply_per_lib :  ITTAPI function not implemented: __itt_model_record_deallocation
49289 : 0x392e9d26d7522 : 2 : ittapi_config_apply_per_lib :  ITTAPI function not implemented: __itt_model_induction_uses
49289 : 0x392e9d26e462b : 2 : ittapi_config_apply_per_lib :  ITTAPI function not implemented: __itt_model_reduction_uses
49289 : 0x392e9d26e75db : 2 : ittapi_config_apply_per_lib :  ITTAPI function not implemented: __itt_model_observe_uses
49289 : 0x392e9d26e9e9e : 2 : ittapi_config_apply_per_lib :  ITTAPI function not implemented: __itt_model_clear_uses
49289 : 0x392e9d26ec8be : 2 : ittapi_config_apply_per_lib :  ITTAPI function not implemented: __itt_model_site_beginA
49289 : 0x392e9d26eef95 : 2 : ittapi_config_apply_per_lib :  ITTAPI function not implemented: __itt_model_site_beginAL
49289 : 0x392e9d26f16bd : 2 : ittapi_config_apply_per_lib :  ITTAPI function not implemented: __itt_model_task_beginA
49289 : 0x392e9d26f3de4 : 2 : ittapi_config_apply_per_lib :  ITTAPI function not implemented: __itt_model_task_beginAL
49289 : 0x392e9d26f64a7 : 2 : ittapi_config_apply_per_lib :  ITTAPI function not implemented: __itt_model_iteration_taskA
49289 : 0x392e9d26f8a1f : 2 : ittapi_config_apply_per_lib :  ITTAPI function not implemented: __itt_model_iteration_taskAL
49289 : 0x392e9d26faeb0 : 2 : ittapi_config_apply_per_lib :  ITTAPI function not implemented: __itt_model_site_end_2
49289 : 0x392e9d270445f : 2 : ittapi_config_apply_per_lib :  ITTAPI function not implemented: __itt_model_task_end_2
49289 : 0x392e9d2707397 : 2 : ittapi_config_apply_per_lib :  ITTAPI function not implemented: __itt_model_lock_acquire_2
49289 : 0x392e9d2709b4a : 2 : ittapi_config_apply_per_lib :  ITTAPI function not implemented: __itt_model_lock_release_2
49289 : 0x392e9d270c31c : 2 : ittapi_config_apply_per_lib :  ITTAPI function not implemented: __itt_model_aggregate_task
49289 : 0x392e9d270e9cb : 2 : ittapi_config_apply_per_lib :  ITTAPI function not implemented: __itt_model_disable_push
49289 : 0x392e9d2710f75 : 2 : ittapi_config_apply_per_lib :  ITTAPI function not implemented: __itt_model_disable_pop
49289 : 0x392e9d27130c7 : 2 : ittapi_config_apply_per_lib :  ITTAPI function instrumented: __itt_heap_function_create
49289 : 0x392e9d2714d16 : 2 : ittapi_config_apply_per_lib :  ITTAPI function instrumented: __itt_heap_allocate_begin
49289 : 0x392e9d27166bb : 2 : ittapi_config_apply_per_lib :  ITTAPI function instrumented: __itt_heap_allocate_end
49289 : 0x392e9d271825f : 2 : ittapi_config_apply_per_lib :  ITTAPI function instrumented: __itt_heap_free_begin
49289 : 0x392e9d2720b54 : 2 : ittapi_config_apply_per_lib :  ITTAPI function instrumented: __itt_heap_free_end
49289 : 0x392e9d2723195 : 2 : ittapi_config_apply_per_lib :  ITTAPI function instrumented: __itt_heap_reallocate_begin
49289 : 0x392e9d2724e70 : 2 : ittapi_config_apply_per_lib :  ITTAPI function instrumented: __itt_heap_reallocate_end
49289 : 0x392e9d27272cf : 2 : ittapi_config_apply_per_lib :  ITTAPI function not implemented: __itt_heap_internal_access_begin
49289 : 0x392e9d2729974 : 2 : ittapi_config_apply_per_lib :  ITTAPI function not implemented: __itt_heap_internal_access_end
49289 : 0x392e9d272bf50 : 2 : ittapi_config_apply_per_lib :  ITTAPI function not implemented: __itt_heap_record_memory_growth_begin
49289 : 0x392e9d272e541 : 2 : ittapi_config_apply_per_lib :  ITTAPI function not implemented: __itt_heap_record_memory_growth_end
49289 : 0x392e9d2730c68 : 2 : ittapi_config_apply_per_lib :  ITTAPI function not implemented: __itt_heap_reset_detection
49289 : 0x392e9d27330fa : 2 : ittapi_config_apply_per_lib :  ITTAPI function not implemented: __itt_heap_record
49289 : 0x392e9d273553b : 2 : ittapi_config_apply_per_lib :  ITTAPI function not implemented: __itt_id_create
49289 : 0x392e9d2742047 : 2 : ittapi_config_apply_per_lib :  ITTAPI function not implemented: __itt_id_destroy
49289 : 0x392e9d2744a04 : 2 : ittapi_config_apply_per_lib :  ITTAPI function instrumented: __itt_get_timestamp
49289 : 0x392e9d2746c1e : 2 : ittapi_config_apply_per_lib :  ITTAPI function not implemented: __itt_region_begin
49289 : 0x392e9d2748e7e : 2 : ittapi_config_apply_per_lib :  ITTAPI function not implemented: __itt_region_end
49289 : 0x392e9d274ae67 : 2 : ittapi_config_apply_per_lib :  ITTAPI function instrumented: __itt_frame_begin_v3
49289 : 0x392e9d274cb42 : 2 : ittapi_config_apply_per_lib :  ITTAPI function instrumented: __itt_frame_end_v3
49289 : 0x392e9d274e719 : 2 : ittapi_config_apply_per_lib :  ITTAPI function instrumented: __itt_frame_submit_v3
49289 : 0x392e9d274fbc5 : 2 : ittapi_config_apply_per_lib :  ITTAPI function NOT instrumented (not matched by --itt-config option): __itt_task_group

49289 : 0x392e9d275111c : 2 : ittapi_config_apply_per_lib :  ITTAPI function NOT instrumented (not matched by --itt-config option): __itt_task_begin

49289 : 0x392e9d2752509 : 2 : ittapi_config_apply_per_lib :  ITTAPI function NOT instrumented (not matched by --itt-config option): __itt_task_begin_fn

49289 : 0x392e9d2761bee : 2 : ittapi_config_apply_per_lib :  ITTAPI function NOT instrumented (not matched by --itt-config option): __itt_task_end

49289 : 0x392e9d2763da4 : 2 : ittapi_config_apply_per_lib :  ITTAPI function NOT instrumented (not matched by --itt-config option): __itt_counter_inc_v3

49289 : 0x392e9d2765337 : 2 : ittapi_config_apply_per_lib :  ITTAPI function NOT instrumented (not matched by --itt-config option): __itt_counter_inc_delta_v3

49289 : 0x392e9d2767c17 : 2 : ittapi_config_apply_per_lib :  ITTAPI function not implemented: __itt_marker
49289 : 0x392e9d2769cd3 : 2 : ittapi_config_apply_per_lib :  ITTAPI function instrumented: __itt_metadata_add
49289 : 0x392e9d276bffb : 2 : ittapi_config_apply_per_lib :  ITTAPI function not implemented: __itt_metadata_str_add
49289 : 0x392e9d276e719 : 2 : ittapi_config_apply_per_lib :  ITTAPI function not implemented: __itt_relation_add_to_current
49289 : 0x392e9d2770c7d : 2 : ittapi_config_apply_per_lib :  ITTAPI function not implemented: __itt_relation_add
49289 : 0x392e9d2772b4d : 2 : ittapi_config_apply_per_lib :  ITTAPI function instrumented: __itt_event_create
49289 : 0x392e9d2773ff9 : 2 : ittapi_config_apply_per_lib :  ITTAPI function NOT instrumented (not matched by --itt-config option): __itt_event_start

49289 : 0x392e9d277bec0 : 2 : ittapi_config_apply_per_lib :  ITTAPI function NOT instrumented (not matched by --itt-config option): __itt_event_end

49289 : 0x392e9d277ded1 : 2 : ittapi_config_apply_per_lib :  ITTAPI function NOT instrumented (not matched by --itt-config option): __itt_sync_set_name

49289 : 0x392e9d277feec : 2 : ittapi_config_apply_per_lib :  ITTAPI function instrumented: __itt_notify_sync_name
49289 : 0x392e9d2781d4e : 2 : ittapi_config_apply_per_lib :  ITTAPI function instrumented: __itt_notify_sync_prepare
49289 : 0x392e9d2783725 : 2 : ittapi_config_apply_per_lib :  ITTAPI function instrumented: __itt_notify_sync_cancel
49289 : 0x392e9d27852ac : 2 : ittapi_config_apply_per_lib :  ITTAPI function instrumented: __itt_notify_sync_acquired
49289 : 0x392e9d2786ce7 : 2 : ittapi_config_apply_per_lib :  ITTAPI function instrumented: __itt_notify_sync_releasing
49289 : 0x392e9d2789092 : 2 : ittapi_config_apply_per_lib :  ITTAPI function not implemented: __itt_memory_read
49289 : 0x392e9d278b628 : 2 : ittapi_config_apply_per_lib :  ITTAPI function not implemented: __itt_memory_write
49289 : 0x392e9d278db8d : 2 : ittapi_config_apply_per_lib :  ITTAPI function not implemented: __itt_memory_update
49289 : 0x392e9d2797018 : 2 : ittapi_config_apply_per_lib :  ITTAPI function not implemented: __itt_state_get
49289 : 0x392e9d2799b8e : 2 : ittapi_config_apply_per_lib :  ITTAPI function not implemented: __itt_state_set
49289 : 0x392e9d279bff8 : 2 : ittapi_config_apply_per_lib :  ITTAPI function not implemented: __itt_obj_mode_set
49289 : 0x392e9d279e733 : 2 : ittapi_config_apply_per_lib :  ITTAPI function not implemented: __itt_thr_mode_set
49289 : 0x392e9d27a062b : 2 : ittapi_config_apply_per_lib :  ITTAPI function instrumented: __itt_frame_create
49289 : 0x392e9d27a216b : 2 : ittapi_config_apply_per_lib :  ITTAPI function instrumented: __itt_frame_begin
49289 : 0x392e9d27a3bed : 2 : ittapi_config_apply_per_lib :  ITTAPI function instrumented: __itt_frame_end
49289 : 0x392e9d27a5556 : 2 : ittapi_config_apply_per_lib :  ITTAPI function instrumented: __itt_counter_create
49289 : 0x392e9d27a69c6 : 2 : ittapi_config_apply_per_lib :  ITTAPI function NOT instrumented (not matched by --itt-config option): __itt_counter_destroy

49289 : 0x392e9d27a7ec2 : 2 : ittapi_config_apply_per_lib :  ITTAPI function NOT instrumented (not matched by --itt-config option): __itt_counter_inc

49289 : 0x392e9d27b3138 : 2 : ittapi_config_apply_per_lib :  ITTAPI function NOT instrumented (not matched by --itt-config option): __itt_counter_inc_delta

49289 : 0x392e9d27b6446 : 2 : ittapi_config_apply_per_lib :  ITTAPI function not implemented: __itt_mark_create
49289 : 0x392e9d27b8a0e : 2 : ittapi_config_apply_per_lib :  ITTAPI function not implemented: __itt_mark
49289 : 0x392e9d27bafaf : 2 : ittapi_config_apply_per_lib :  ITTAPI function not implemented: __itt_mark_off
49289 : 0x392e9d27bd54f : 2 : ittapi_config_apply_per_lib :  ITTAPI function not implemented: __itt_mark_global
49289 : 0x392e9d27bfaa9 : 2 : ittapi_config_apply_per_lib :  ITTAPI function not implemented: __itt_mark_global_off
49289 : 0x392e9d27c14a8 : 2 : ittapi_config_apply_per_lib :  ITTAPI function NOT instrumented (not matched by --itt-config option): __itt_stack_caller_create

49289 : 0x392e9d27c2a63 : 2 : ittapi_config_apply_per_lib :  ITTAPI function NOT instrumented (not matched by --itt-config option): __itt_stack_caller_destroy

49289 : 0x392e9d27c3f24 : 2 : ittapi_config_apply_per_lib :  ITTAPI function NOT instrumented (not matched by --itt-config option): __itt_stack_callee_enter

49289 : 0x392e9d27c54c0 : 2 : ittapi_config_apply_per_lib :  ITTAPI function NOT instrumented (not matched by --itt-config option): __itt_stack_callee_leave

49289 : 0x392e9d27ce72f : 2 : ittapi_config_apply_per_lib :  ITTAPI function not implemented: __itt_clock_domain_create
49289 : 0x392e9d27d15e5 : 2 : ittapi_config_apply_per_lib :  ITTAPI function not implemented: __itt_clock_domain_reset
49289 : 0x392e9d27d3986 : 2 : ittapi_config_apply_per_lib :  ITTAPI function not implemented: __itt_id_create_ex
49289 : 0x392e9d27d5dc7 : 2 : ittapi_config_apply_per_lib :  ITTAPI function not implemented: __itt_id_destroy_ex
49289 : 0x392e9d27d76e0 : 2 : ittapi_config_apply_per_lib :  ITTAPI function NOT instrumented (not matched by --itt-config option): __itt_task_begin_ex

49289 : 0x392e9d27d8af6 : 2 : ittapi_config_apply_per_lib :  ITTAPI function NOT instrumented (not matched by --itt-config option): __itt_task_begin_fn_ex

49289 : 0x392e9d27d9f84 : 2 : ittapi_config_apply_per_lib :  ITTAPI function NOT instrumented (not matched by --itt-config option): __itt_task_end_ex

49289 : 0x392e9d27db390 : 2 : ittapi_config_apply_per_lib :  ITTAPI function NOT instrumented (not matched by --itt-config option): __itt_task_begin_overlapped

49289 : 0x392e9d27dc846 : 2 : ittapi_config_apply_per_lib :  ITTAPI function NOT instrumented (not matched by --itt-config option): __itt_task_begin_overlapped_ex

49289 : 0x392e9d27ddc5c : 2 : ittapi_config_apply_per_lib :  ITTAPI function NOT instrumented (not matched by --itt-config option): __itt_task_end_overlapped

49289 : 0x392e9d27e59ba : 2 : ittapi_config_apply_per_lib :  ITTAPI function NOT instrumented (not matched by --itt-config option): __itt_task_end_overlapped_ex

49289 : 0x392e9d27e8d18 : 2 : ittapi_config_apply_per_lib :  ITTAPI function not implemented: __itt_marker_ex
49289 : 0x392e9d27eb49a : 2 : ittapi_config_apply_per_lib :  ITTAPI function not implemented: __itt_metadata_add_with_scope
49289 : 0x392e9d27edad0 : 2 : ittapi_config_apply_per_lib :  ITTAPI function not implemented: __itt_metadata_str_add_with_scope
49289 : 0x392e9d27f0324 : 2 : ittapi_config_apply_per_lib :  ITTAPI function not implemented: __itt_relation_add_to_current_ex
49289 : 0x392e9d27f28a6 : 2 : ittapi_config_apply_per_lib :  ITTAPI function not implemented: __itt_relation_add_ex
49289 : 0x392e9d27f4d1a : 2 : ittapi_config_apply_per_lib :  ITTAPI function not implemented: __itt_track_group_create
49289 : 0x392e9d27f7025 : 2 : ittapi_config_apply_per_lib :  ITTAPI function not implemented: __itt_track_create
49289 : 0x392e9d27f92d5 : 2 : ittapi_config_apply_per_lib :  ITTAPI function not implemented: __itt_set_track
49289 : 0x392e9d27fb3a5 : 2 : ittapi_config_apply_per_lib :  ITTAPI function instrumented: __itt_api_version
49289 : 0x392e9d28077f5 : 2 : ittapi_config_apply_per_lib :  ITTAPI function not implemented: __itt_av_save